-0.495634 -0.00653366 0.494884 -0.00524239 -0.194449 0.338313 0.695199 0.891641 0.875955
-0.482603 -0.0260922 0.479642 -0.0209787 -0.177949 0.333145 0.68091 0.866637 0.855868
-0.461185 -0.0585052 0.454694 -0.0472444 -0.151105 0.324074 0.657596 0.825276 0.796583
-0.431935 -0.10343 0.420871 -0.0841065 -0.115101 0.31026 0.626165 0.768121 0.705714
-0.395697 -0.16036 0.379391 -0.131654 -0.0716299 0.290468 0.587937 0.695991 0.592709
-0.353605 -0.228647 0.33182 -0.189984 -0.0228062 0.26312 0.54459 0.609911 0.467093
-0.307062 -0.307544 0.280022 -0.259182 0.0289537 0.226371 0.498087 0.511067 0.336653
-0.257723 -0.396278 0.226083 -0.339296 0.0810562 0.178222 0.450584 0.400729 0.20592
-0.207438 -0.494126 0.172242 -0.430304 0.13086 0.116653 0.404337 0.280177 0.0752275
-0.158191 -0.600525 0.120788 -0.532077 0.175798 0.0397763 0.361605 0.150603 -0.0594733
-0.112009 -0.7152 0.0739629 -0.644296 0.213479 -0.0539769 0.324567 0.0129838 -0.206035
-0.0708258 -0.8384 0.0338126 -0.766278 0.241703 -0.165487 0.295311 -0.132235 -0.375104
-0.0360295 -0.971649 0.00173225 -0.896248 0.259012 -0.29097 0.275285 -0.289088 -0.577414
-0.00355435 -0.971649 -0.0264169 -0.896248 0.272558 -0.424565 0.257413 -0.463538 -0.740836
0.0344462 -0.839949 -0.0590339 -0.76606 0.290287 -0.563656 0.234301 -0.65687 -0.812342
0.0794204 -0.723362 -0.0996949 -0.643461 0.313835 -0.706074 0.206439 -0.867817 -0.895946
0.126621 -0.620312 -0.147288 -0.530229 0.345911 -0.853049 0.174757 -0.867817 -0.903102
0.174433 -0.52704 -0.199911 -0.427039 0.387075 -0.853049 0.138404 -0.654629 -0.782718
0.223627 -0.442558 -0.255427 -0.33431 0.434444 -0.709797 0.0973561 -0.452225 -0.566787
0.272202 -0.366683 -0.311578 -0.252398 0.485353 -0.581128 0.0540234 -0.259462 -0.351861
0.317101 -0.298308 -0.366055 -0.181599 0.538418 -0.466656 0.0105365 -0.0775296 -0.139406
0.35524 -0.236769 -0.416608 -0.122146 0.592273 -0.365488 -0.0309051 0.092242 0.0659811
0.383718 -0.181939 -0.461162 -0.0741914 0.645546 -0.276196 -0.0681017 0.248452 0.25754
0.400096 -0.134247 -0.497935 -0.0377969 0.696768 -0.196878 -0.0989293 0.389691 0.427677
0.40271 -0.0945372 -0.525538 -0.0129357 0.744248 -0.125366 -0.12142 0.514607 0.5696
0.390875 -0.0638154 -0.543056 0.000497198 0.786024 -0.0595403 -0.133843 0.621981 0.67896
0.364924 -0.0430071 -0.550099 0.00266371 0.819963 0.0023709 -0.134788 0.710804 0.755989
0.326125 -0.0328014 -0.546818 -0.00624241 0.843938 0.0615936 -0.123245 0.780347 0.812302
0.276527 -0.0335807 -0.533893 -0.0260221 0.856043 0.118707 -0.0986767 0.830214 0.833396
0.218786 -0.0453956 -0.512481 -0.0564967 0.854771 0.173607 -0.0610767 0.86038 0.825503
0.155979 -0.0679644 -0.484145 -0.0975331 0.839175 0.225515 -0.0110095 0.871209 0.796667
0.0913953 -0.100682 -0.450753 -0.149073 0.808982 0.27302 0.0503748 0.863449 0.752939
0.028328 -0.142634 -0.414354 -0.211167 0.76467 0.314148 0.121356 0.83821 0.700606
-0.030143 -0.192601 -0.377038 -0.284038 0.707485 0.346465 0.199695 0.79693 0.645359
-0.0813921 -0.249049 -0.340739 -0.368159 0.639397 0.367176 0.282735 0.741342 0.589393
-0.123543 -0.310117 -0.306982 -0.464357 0.562953 0.373213 0.367573 0.673481 0.527709
-0.155836 -0.373726 -0.276514 -0.573793 0.480892 0.361201 0.451459 0.595803 0.44209
-0.178857 -0.438074 -0.249062 -0.697576 0.394781 0.327243 0.533138 0.511513 0.296
-0.194232 -0.502407 -0.223608 -0.836105 0.302081 0.269226 0.615758 0.422369 0.0987886
-0.203902 -0.567456 -0.199091 -0.836105 0.200485 0.189446 0.702509 0.326167 -0.018901
-0.209429 -0.633587 -0.175056 -0.69778 0.0928289 0.0913966 0.791656 0.219983 -0.0144455
-0.212022 -0.698714 -0.151496 -0.576846 -0.0157757 -0.022819 0.879293 0.102708 -0.0904044
-0.214162 -0.770748 -0.12705 -0.466734 -0.119931 -0.151397 0.961144 -0.0261204 -0.148646
-0.217383 -0.858131 -0.101029 -0.360518 -0.214578 -0.292572 0.961144 -0.166751 -0.223935
-0.221059 -0.958153 -0.0744892 -0.262283 -0.29618 -0.444832 0.876187 -0.319321 -0.340614
-0.224495 -0.958153 -0.0481766 -0.176367 -0.363672 -0.607096 0.777109 -0.48387 -0.444264
-0.226311 -0.856613 -0.0226677 -0.105944 -0.418248 -0.777736 0.664297 -0.660367 -0.540591
-0.223361 -0.762569 0.00175916 -0.0516925 -0.463772 -0.956488 0.538751 -0.848729 -0.723576
-0.215207 -0.674381 0.0250352 -0.0129335 -0.502153 -0.956488 0.402008 -0.848729 -0.739331
-0.204478 -0.592109 0.0472111 0.0111986 -0.532793 -0.778672 0.25605 -0.660237 -0.578881
-0.191866 -0.517359 0.0684681 0.0217439 -0.557539 -0.611869 0.103233 -0.483267 -0.427381
-0.177247 -0.451351 0.0891228 0.0198563 -0.579498 -0.456132 -0.0537772 -0.3177 -0.278067
-0.16111 -0.395602 0.10964 0.00672213 -0.601486 -0.311433 -0.212137 -0.163234 -0.129111
-0.144654 -0.351509 0.130645 -0.0165353 -0.625755 -0.17814 -0.369023 -0.0192285 0.0163398
-0.12968 -0.319965 0.15292 -0.0489781 -0.653699 -0.0576371 -0.522022 0.115659 0.149262
-0.118391 -0.301125 0.177373 -0.0900022 -0.684728 0.0469699 -0.670428 0.244082 0.251231
-0.113088 -0.294309 0.20493 -0.139485 -0.714394 0.132493 -0.817316 0.368428 0.313457
-0.115759 -0.298102 0.236307 -0.197846 -0.737609 0.198721 -0.966502 0.487911 0.365589
-0.127614 -0.310687 0.271718 -0.265889 -0.752901 0.247371 -0.966502 0.599801 0.408888
-0.148808 -0.330324 0.310679 -0.344439 -0.760632 0.278998 -0.816314 0.70263 0.428297
-0.178481 -0.355769 0.352052 -0.433989 -0.761332 0.29273 -0.667091 0.796518 0.422814
-0.214958 -0.386478 0.394223 -0.534548 -0.755788 0.288508 -0.518106 0.880987 0.429371
-0.255988 -0.422622 0.435297 -0.645659 -0.744311 0.268083 -0.369404 0.954002 0.442502
-0.298955 -0.464993 0.473235 -0.766492 -0.726273 0.234026 -0.22219 0.954002 0.415927
-0.341084 -0.514855 0.505988 -0.895948 -0.700699 0.188562 -0.0781651 0.878928 0.339417
-0.379623 -0.57378 0.531599 -0.895948 -0.666781 0.132839 0.0610692 0.786889 0.285876
-0.412331 -0.642585 0.548617 -0.766047 -0.623839 0.0673836 0.194039 0.677727 0.258911
-0.437755 -0.720376 0.556322 -0.644319 -0.571205 -0.00747021 0.319348 0.55148 0.219561
-0.454749 -0.805392 0.554215 -0.532849 -0.508319 -0.0916504 0.435786 0.408396 0.163993
-0.462147 -0.895761 0.541695 -0.433767 -0.434814 -0.185357 0.542422 0.248936 0.0880921
-0.458871 -0.895761 0.51819 -0.349345 -0.35061 -0.289034 0.63867 0.073747 -0.0144156
-0.444392 -0.804896 0.483541 -0.28128 -0.255885 -0.402273 0.724338 -0.116378 -0.131978
-0.419764 -0.719571 0.438381 -0.229828 -0.150438 -0.522968 0.799646 -0.320539 -0.26954
-0.388421 -0.642625 0.384011 -0.194324 -0.0327809 -0.649914 0.865239 -0.537766 -0.446453
-0.353598 -0.573533 0.322134 -0.173883 0.0975436 -0.785511 0.922192 -0.767069 -0.641214
-0.315416 -0.511859 0.254743 -0.167446 0.237186 -0.93217 0.971982 -0.767069 -0.70111
-0.27254 -0.460518 0.18405 -0.173797 0.380852 -0.93217 0.971982 -0.537836 -0.57159
-0.224631 -0.423092 0.112437 -0.191585 0.52411 -0.782261 0.923906 -0.320851 -0.401787
-0.172658 -0.401384 0.042343 -0.219313 0.663625 -0.638038 0.873989 -0.116168 -0.220859
-0.117789 -0.396352 -0.0240134 -0.255146 0.796938 -0.501193 0.823641 0.0770308 -0.0377681
-0.0594598 -0.409888 -0.0859918 -0.296186 0.922443 -0.372764 0.773262 0.258776 0.13031
0.00899185 -0.442138 -0.148944 -0.34105 0.922443 -0.252821 0.723303 0.427902 0.205357
0.0926751 -0.488856 -0.217989 -0.392561 0.796243 -0.141302 0.674469 0.582922 0.218865
0.187618 -0.545896 -0.291733 -0.453769 0.662248 -0.0383884 0.626868 0.72292 0.253955
0.287286 -0.611871 -0.366822 -0.525657 0.524095 0.0560927 0.580046 0.847322 0.314698
0.386114 -0.685786 -0.4395 -0.608625 0.384169 0.142143 0.533425 0.955531 0.408264
0.479061 -0.765411 -0.505941 -0.702822 0.244385 0.218284 0.486309 0.955531 0.482309
0.560434 -0.847285 -0.56248 -0.808235 0.107405 0.280658 0.438057 0.847704 0.542111
0.623924 -0.927768 -0.605819 -0.924681 -0.0236446 0.323344 0.38856 0.725563 0.616648
0.66341 -0.927768 -0.633237 -0.924681 -0.145912 0.340607 0.338363 0.59137 0.685944
0.67387 -0.845484 -0.642802 -0.807984 -0.256934 0.329365 0.288094 0.446155 0.712119
0.652059 -0.75692 -0.633549 -0.701924 -0.354467 0.289723 0.237789 0.29005 0.652924
0.596757 -0.663459 -0.605605 -0.606862 -0.436487 0.223425 0.18677 0.123059 0.513077
0.508844 -0.567393 -0.560238 -0.522924 -0.501645 0.132611 0.134078 -0.0545407 0.313569
0.391383 -0.471754 -0.499854 -0.450035 -0.549764 0.0197351 0.0788773 -0.242247 0.0900408
0.24954 -0.380022 -0.42791 -0.387991 -0.582035 -0.112488 0.0206514 -0.439501 -0.115268
0.0903111 -0.295637 -0.348745 -0.336601 -0.600945 -0.261303 -0.0407707 -0.645804 -0.267686
-0.0780692 -0.221196 -0.267306 -0.295986 -0.609903 -0.424382 -0.105267 -0.86077 -0.360285
-0.247685 -0.156975 -0.188443 -0.26752 -0.612291 -0.600343 -0.172523 -0.86077 -0.389657
-0.417542 -0.100253 -0.11151 -0.255015 -0.611224 -0.786894 -0.241063 -0.647007 -0.376755
